\relax 
\providecommand\hyper@newdestlabel[2]{}
\providecommand\HyperFirstAtBeginDocument{\AtBeginDocument}
\HyperFirstAtBeginDocument{\ifx\hyper@anchor\@undefined
\global\let\oldcontentsline\contentsline
\gdef\contentsline#1#2#3#4{\oldcontentsline{#1}{#2}{#3}}
\global\let\oldnewlabel\newlabel
\gdef\newlabel#1#2{\newlabelxx{#1}#2}
\gdef\newlabelxx#1#2#3#4#5#6{\oldnewlabel{#1}{{#2}{#3}}}
\AtEndDocument{\ifx\hyper@anchor\@undefined
\let\contentsline\oldcontentsline
\let\newlabel\oldnewlabel
\fi}
\fi}
\global\let\hyper@last\relax 
\gdef\HyperFirstAtBeginDocument#1{#1}
\providecommand\HyField@AuxAddToFields[1]{}
\providecommand\HyField@AuxAddToCoFields[2]{}
\catcode `"\active 
\select@language{russian}
\@writefile{toc}{\select@language{russian}}
\@writefile{lof}{\select@language{russian}}
\@writefile{lot}{\select@language{russian}}
\select@language{russian}
\@writefile{toc}{\select@language{russian}}
\@writefile{lof}{\select@language{russian}}
\@writefile{lot}{\select@language{russian}}
\@writefile{toc}{\contentsline {chapter}{\numberline {1}Presente de Indicativo}{2}{chapter.1}}
\@writefile{lof}{\addvspace {10\p@ }}
\@writefile{lot}{\addvspace {10\p@ }}
\@writefile{toc}{\contentsline {subsubsection}{\IeC {\CYRP }\IeC {\cyrr }\IeC {\cyri }\IeC {\cyrz }\IeC {\cyrn }\IeC {\cyra }\IeC {\cyrk }\IeC {\cyri }}{2}{section*.1}}
\@writefile{toc}{\contentsline {subsubsection}{\IeC {\CYRF }\IeC {\cyro }\IeC {\cyrr }\IeC {\cyrm }\IeC {\cyrery } \IeC {\cyrg }\IeC {\cyrl }\IeC {\cyra }\IeC {\cyrg }\IeC {\cyro }\IeC {\cyrl }\IeC {\cyro }\IeC {\cyrv } \IeC {\cyro }\IeC {\cyrb }\IeC {\cyrery }\IeC {\cyrch }\IeC {\cyrn }\IeC {\cyro }\IeC {\cyrg }\IeC {\cyro } \IeC {\cyrs }\IeC {\cyrp }\IeC {\cyrr }\IeC {\cyrya }\IeC {\cyrzh }\IeC {\cyre }\IeC {\cyrn }\IeC {\cyri }\IeC {\cyrya }}{2}{section*.2}}
\@writefile{lot}{\contentsline {table}{\numberline {1.1}{\ignorespaces \IeC {\CYRF }\IeC {\cyro }\IeC {\cyrr }\IeC {\cyrm }\IeC {\cyrery } \IeC {\cyrg }\IeC {\cyrl }\IeC {\cyra }\IeC {\cyrg }\IeC {\cyro }\IeC {\cyrl }\IeC {\cyro }\IeC {\cyrv }\relax }}{2}{table.caption.3}}
\@writefile{toc}{\contentsline {subsubsection}{\IeC {\CYRO }\IeC {\cyrt }\IeC {\cyrk }\IeC {\cyrl }\IeC {\cyro }\IeC {\cyrn }\IeC {\cyrya }\IeC {\cyryu }\IeC {\cyrshch }\IeC {\cyri }\IeC {\cyre }\IeC {\cyrs }\IeC {\cyrya } \IeC {\cyrg }\IeC {\cyrl }\IeC {\cyra }\IeC {\cyrg }\IeC {\cyro }\IeC {\cyrl }\IeC {\cyrery }}{2}{section*.4}}
\newlabel{sec:verbosMal}{{1}{2}{Отклоняющиеся глаголы}{section*.4}{}}
\@writefile{toc}{\contentsline {paragraph}{I \IeC {\cyrg }\IeC {\cyrr }\IeC {\cyru }\IeC {\cyrp }\IeC {\cyrp }\IeC {\cyra }}{2}{section*.5}}
\@writefile{lot}{\contentsline {table}{\numberline {1.2}{\ignorespaces \IeC {\CYRF }\IeC {\cyro }\IeC {\cyrr }\IeC {\cyrm }\IeC {\cyrery } \IeC {\cyrg }\IeC {\cyrl }\IeC {\cyra }\IeC {\cyrg }\IeC {\cyro }\IeC {\cyrl }\IeC {\cyro }\IeC {\cyrv } I \IeC {\cyrg }\IeC {\cyrr }\IeC {\cyru }\IeC {\cyrp }\IeC {\cyrp }\IeC {\cyrery }\relax }}{3}{table.caption.6}}
\@writefile{toc}{\contentsline {paragraph}{II \IeC {\cyrg }\IeC {\cyrr }\IeC {\cyru }\IeC {\cyrp }\IeC {\cyrp }\IeC {\cyra }}{3}{section*.7}}
\@writefile{lot}{\contentsline {table}{\numberline {1.3}{\ignorespaces \IeC {\CYRF }\IeC {\cyro }\IeC {\cyrr }\IeC {\cyrm }\IeC {\cyrery } \IeC {\cyrg }\IeC {\cyrl }\IeC {\cyra }\IeC {\cyrg }\IeC {\cyro }\IeC {\cyrl }\IeC {\cyro }\IeC {\cyrv } II \IeC {\cyrg }\IeC {\cyrr }\IeC {\cyru }\IeC {\cyrp }\IeC {\cyrp }\IeC {\cyrery }\relax }}{3}{table.caption.8}}
\@writefile{toc}{\contentsline {paragraph}{III \IeC {\cyrg }\IeC {\cyrr }\IeC {\cyru }\IeC {\cyrp }\IeC {\cyrp }\IeC {\cyra }}{3}{section*.9}}
\@writefile{lot}{\contentsline {table}{\numberline {1.4}{\ignorespaces \IeC {\CYRF }\IeC {\cyro }\IeC {\cyrr }\IeC {\cyrm }\IeC {\cyrery } \IeC {\cyrg }\IeC {\cyrl }\IeC {\cyra }\IeC {\cyrg }\IeC {\cyro }\IeC {\cyrl }\IeC {\cyro }\IeC {\cyrv } III \IeC {\cyrg }\IeC {\cyrr }\IeC {\cyru }\IeC {\cyrp }\IeC {\cyrp }\IeC {\cyrery }\relax }}{3}{table.caption.10}}
\@writefile{toc}{\contentsline {paragraph}{IV \IeC {\cyrg }\IeC {\cyrr }\IeC {\cyru }\IeC {\cyrp }\IeC {\cyrp }\IeC {\cyra }}{3}{section*.11}}
\@writefile{lot}{\contentsline {table}{\numberline {1.5}{\ignorespaces \IeC {\CYRF }\IeC {\cyro }\IeC {\cyrr }\IeC {\cyrm }\IeC {\cyrery } \IeC {\cyrg }\IeC {\cyrl }\IeC {\cyra }\IeC {\cyrg }\IeC {\cyro }\IeC {\cyrl }\IeC {\cyro }\IeC {\cyrv } IV \IeC {\cyrg }\IeC {\cyrr }\IeC {\cyru }\IeC {\cyrp }\IeC {\cyrp }\IeC {\cyrery }\relax }}{3}{table.caption.12}}
\@writefile{toc}{\contentsline {paragraph}{V \IeC {\cyrg }\IeC {\cyrr }\IeC {\cyru }\IeC {\cyrp }\IeC {\cyrp }\IeC {\cyra }}{4}{section*.13}}
\@writefile{lot}{\contentsline {table}{\numberline {1.6}{\ignorespaces \IeC {\CYRF }\IeC {\cyro }\IeC {\cyrr }\IeC {\cyrm }\IeC {\cyrery } \IeC {\cyrg }\IeC {\cyrl }\IeC {\cyra }\IeC {\cyrg }\IeC {\cyro }\IeC {\cyrl }\IeC {\cyro }\IeC {\cyrv } V \IeC {\cyrg }\IeC {\cyrr }\IeC {\cyru }\IeC {\cyrp }\IeC {\cyrp }\IeC {\cyrery }\relax }}{4}{table.caption.14}}
\@writefile{toc}{\contentsline {paragraph}{VI \IeC {\cyrg }\IeC {\cyrr }\IeC {\cyru }\IeC {\cyrp }\IeC {\cyrp }\IeC {\cyra }}{4}{section*.15}}
\@writefile{lot}{\contentsline {table}{\numberline {1.7}{\ignorespaces \IeC {\CYRF }\IeC {\cyro }\IeC {\cyrr }\IeC {\cyrm }\IeC {\cyrery } \IeC {\cyrg }\IeC {\cyrl }\IeC {\cyra }\IeC {\cyrg }\IeC {\cyro }\IeC {\cyrl }\IeC {\cyro }\IeC {\cyrv } VI \IeC {\cyrg }\IeC {\cyrr }\IeC {\cyru }\IeC {\cyrp }\IeC {\cyrp }\IeC {\cyrery }\relax }}{4}{table.caption.16}}
\@writefile{toc}{\contentsline {chapter}{\numberline {2}Pret\IeC {\'e}rito Perfecto}{5}{chapter.2}}
\@writefile{lof}{\addvspace {10\p@ }}
\@writefile{lot}{\addvspace {10\p@ }}
\@writefile{toc}{\contentsline {subsubsection}{\IeC {\CYRP }\IeC {\cyrr }\IeC {\cyri }\IeC {\cyrz }\IeC {\cyrn }\IeC {\cyra }\IeC {\cyrk }\IeC {\cyri }}{5}{section*.17}}
\@writefile{toc}{\contentsline {subsubsection}{\IeC {\CYRF }\IeC {\cyro }\IeC {\cyrr }\IeC {\cyrm }\IeC {\cyrery } \IeC {\cyrg }\IeC {\cyrl }\IeC {\cyra }\IeC {\cyrg }\IeC {\cyro }\IeC {\cyrl }\IeC {\cyro }\IeC {\cyrv } \IeC {\cyrv } Pret\IeC {\'e}rito Perfecto}{5}{section*.18}}
\@writefile{lot}{\contentsline {table}{\numberline {2.1}{\ignorespaces \IeC {\CYRF }\IeC {\cyro }\IeC {\cyrr }\IeC {\cyrm }\IeC {\cyrery } \IeC {\cyrg }\IeC {\cyrl }\IeC {\cyra }\IeC {\cyrg }\IeC {\cyro }\IeC {\cyrl }\IeC {\cyra } haber\relax }}{5}{table.caption.19}}
\@writefile{toc}{\contentsline {chapter}{\numberline {3}Pret\IeC {\'e}rito Imperfecto de Indicativo}{7}{chapter.3}}
\@writefile{lof}{\addvspace {10\p@ }}
\@writefile{lot}{\addvspace {10\p@ }}
\@writefile{toc}{\contentsline {subsubsection}{\IeC {\CYRP }\IeC {\cyrr }\IeC {\cyri }\IeC {\cyrz }\IeC {\cyrn }\IeC {\cyra }\IeC {\cyrk }\IeC {\cyri }}{7}{section*.20}}
\@writefile{toc}{\contentsline {subsubsection}{\IeC {\CYRF }\IeC {\cyro }\IeC {\cyrr }\IeC {\cyrm }\IeC {\cyrery } \IeC {\cyrg }\IeC {\cyrl }\IeC {\cyra }\IeC {\cyrg }\IeC {\cyro }\IeC {\cyrl }\IeC {\cyro }\IeC {\cyrv } \IeC {\cyrv } Pret\IeC {\'e}rito Imperfecto}{7}{section*.21}}
\@writefile{lot}{\contentsline {table}{\numberline {3.1}{\ignorespaces \IeC {\CYRF }\IeC {\cyro }\IeC {\cyrr }\IeC {\cyrm }\IeC {\cyrery } \IeC {\cyrg }\IeC {\cyrl }\IeC {\cyra }\IeC {\cyrg }\IeC {\cyro }\IeC {\cyrl }\IeC {\cyro }\IeC {\cyrv }\relax }}{7}{table.caption.22}}
\@writefile{toc}{\contentsline {chapter}{\numberline {4}Pret\IeC {\'e}rito Indefinido}{8}{chapter.4}}
\@writefile{lof}{\addvspace {10\p@ }}
\@writefile{lot}{\addvspace {10\p@ }}
\@writefile{toc}{\contentsline {subsubsection}{\IeC {\CYRP }\IeC {\cyrr }\IeC {\cyri }\IeC {\cyrz }\IeC {\cyrn }\IeC {\cyra }\IeC {\cyrk }\IeC {\cyri }}{8}{section*.23}}
\@writefile{toc}{\contentsline {subsubsection}{\IeC {\CYRF }\IeC {\cyro }\IeC {\cyrr }\IeC {\cyrm }\IeC {\cyrery } \IeC {\cyrg }\IeC {\cyrl }\IeC {\cyra }\IeC {\cyrg }\IeC {\cyro }\IeC {\cyrl }\IeC {\cyro }\IeC {\cyrv } \IeC {\cyro }\IeC {\cyrb }\IeC {\cyrery }\IeC {\cyrch }\IeC {\cyrn }\IeC {\cyro }\IeC {\cyrg }\IeC {\cyro } \IeC {\cyrs }\IeC {\cyrp }\IeC {\cyrr }\IeC {\cyrya }\IeC {\cyrzh }\IeC {\cyre }\IeC {\cyrn }\IeC {\cyri }\IeC {\cyrya }}{8}{section*.24}}
\@writefile{lot}{\contentsline {table}{\numberline {4.1}{\ignorespaces \IeC {\CYRF }\IeC {\cyro }\IeC {\cyrr }\IeC {\cyrm }\IeC {\cyrery } \IeC {\cyrg }\IeC {\cyrl }\IeC {\cyra }\IeC {\cyrg }\IeC {\cyro }\IeC {\cyrl }\IeC {\cyro }\IeC {\cyrv }\relax }}{8}{table.caption.25}}
\@writefile{toc}{\contentsline {subsubsection}{\IeC {\CYRP }\IeC {\cyrr }\IeC {\cyri }\IeC {\cyrm }\IeC {\cyre }\IeC {\cyrr }\IeC {\cyrery }}{8}{section*.26}}
\@writefile{toc}{\contentsline {subsubsection}{\IeC {\CYRG }\IeC {\cyrl }\IeC {\cyra }\IeC {\cyrg }\IeC {\cyro }\IeC {\cyrl }\IeC {\cyrery }-\IeC {\cyri }\IeC {\cyrs }\IeC {\cyrk }\IeC {\cyrl }\IeC {\cyryu }\IeC {\cyrch }\IeC {\cyre }\IeC {\cyrn }\IeC {\cyri }\IeC {\cyrya }}{8}{section*.27}}
\@writefile{toc}{\contentsline {chapter}{\numberline {5}Futuro Simple}{10}{chapter.5}}
\@writefile{lof}{\addvspace {10\p@ }}
\@writefile{lot}{\addvspace {10\p@ }}
\@writefile{toc}{\contentsline {subsubsection}{\IeC {\CYRP }\IeC {\cyrr }\IeC {\cyri }\IeC {\cyrz }\IeC {\cyrn }\IeC {\cyra }\IeC {\cyrk }\IeC {\cyri }}{10}{section*.28}}
\@writefile{toc}{\contentsline {subsubsection}{\IeC {\CYRF }\IeC {\cyro }\IeC {\cyrr }\IeC {\cyrm }\IeC {\cyrery } \IeC {\cyrg }\IeC {\cyrl }\IeC {\cyra }\IeC {\cyrg }\IeC {\cyro }\IeC {\cyrl }\IeC {\cyro }\IeC {\cyrv } \IeC {\cyrv } Futuro Simple}{10}{section*.29}}
\@writefile{lot}{\contentsline {table}{\numberline {5.1}{\ignorespaces \IeC {\CYRF }\IeC {\cyro }\IeC {\cyrr }\IeC {\cyrm }\IeC {\cyrery } \IeC {\cyrg }\IeC {\cyrl }\IeC {\cyra }\IeC {\cyrg }\IeC {\cyro }\IeC {\cyrl }\IeC {\cyro }\IeC {\cyrv }\relax }}{10}{table.caption.30}}
\@writefile{toc}{\contentsline {subsubsection}{\IeC {\CYRG }\IeC {\cyrl }\IeC {\cyra }\IeC {\cyrg }\IeC {\cyro }\IeC {\cyrl }\IeC {\cyrery }-\IeC {\cyri }\IeC {\cyrs }\IeC {\cyrk }\IeC {\cyrl }\IeC {\cyryu }\IeC {\cyrch }\IeC {\cyre }\IeC {\cyrn }\IeC {\cyri }\IeC {\cyrya }}{10}{section*.31}}
\@writefile{toc}{\contentsline {subparagraph}{\IeC {\CYRG }\IeC {\cyrl }\IeC {\cyra }\IeC {\cyrg }\IeC {\cyro }\IeC {\cyrl }\IeC {\cyrery }, \IeC {\cyrp }\IeC {\cyro }\IeC {\cyrl }\IeC {\cyrn }\IeC {\cyro }\IeC {\cyrs }\IeC {\cyrt }\IeC {\cyrsftsn }\IeC {\cyryu } \IeC {\cyrm }\IeC {\cyre }\IeC {\cyrn }\IeC {\cyrya }\IeC {\cyryu }\IeC {\cyrshch }\IeC {\cyri }\IeC {\cyre } \IeC {\cyro }\IeC {\cyrs }\IeC {\cyrn }\IeC {\cyro }\IeC {\cyrv }\IeC {\cyru }}{10}{section*.32}}
\@writefile{toc}{\contentsline {subparagraph}{\IeC {\CYRG }\IeC {\cyrl }\IeC {\cyra }\IeC {\cyrg }\IeC {\cyro }\IeC {\cyrl }\IeC {\cyrery } \IeC {\cyrs } \IeC {\cyrv }\IeC {\cyrery }\IeC {\cyrp }\IeC {\cyra }\IeC {\cyrd }\IeC {\cyra }\IeC {\cyryu }\IeC {\cyrshch }\IeC {\cyre }\IeC {\cyrishrt } \IeC {\cyrg }\IeC {\cyrl }\IeC {\cyra }\IeC {\cyrs }\IeC {\cyrn }\IeC {\cyro }\IeC {\cyrishrt }}{11}{section*.33}}
\@writefile{toc}{\contentsline {subparagraph}{\IeC {\CYRG }\IeC {\cyrl }\IeC {\cyra }\IeC {\cyrg }\IeC {\cyro }\IeC {\cyrl }\IeC {\cyrery } \IeC {\cyrs } \IeC {\cyrv }\IeC {\cyrery }\IeC {\cyrp }\IeC {\cyra }\IeC {\cyrd }\IeC {\cyre }\IeC {\cyrn }\IeC {\cyri }\IeC {\cyre }\IeC {\cyrm } \IeC {\cyrg }\IeC {\cyrl }\IeC {\cyra }\IeC {\cyrs }\IeC {\cyrn }\IeC {\cyro }\IeC {\cyrishrt } \IeC {\cyri } \IeC {\cyrd }\IeC {\cyro }\IeC {\cyrb }\IeC {\cyra }\IeC {\cyrv }\IeC {\cyrl }\IeC {\cyre }\IeC {\cyrn }\IeC {\cyri }\IeC {\cyre }\IeC {\cyrm } \IeC {\cyrb }\IeC {\cyru }\IeC {\cyrk }\IeC {\cyrv }\IeC {\cyrery } \textbf  {d} \IeC {\cyrv }\IeC {\cyro } \IeC {\cyri }\IeC {\cyrz }\IeC {\cyrb }\IeC {\cyre }\IeC {\cyrzh }\IeC {\cyra }\IeC {\cyrn }\IeC {\cyri }\IeC {\cyre } \IeC {\cyrs }\IeC {\cyro }\IeC {\cyrch }\IeC {\cyre }\IeC {\cyrt }\IeC {\cyra }\IeC {\cyrn }\IeC {\cyri }\IeC {\cyrishrt } \IeC {\cyrb }\IeC {\cyru }\IeC {\cyrk }\IeC {\cyrv } \textbf  {nr}, \textbf  {lr} }{11}{section*.34}}
\@writefile{toc}{\contentsline {subsubsection}{\IeC {\CYRE }\IeC {\cyrs }\IeC {\cyrl }\IeC {\cyri } ..., \IeC {\cyrt }\IeC {\cyro } ...}{11}{section*.35}}
\@writefile{toc}{\contentsline {chapter}{\numberline {6}Imperativo Afirmativo}{12}{chapter.6}}
\@writefile{lof}{\addvspace {10\p@ }}
\@writefile{lot}{\addvspace {10\p@ }}
\@writefile{toc}{\contentsline {subsubsection}{\IeC {\CYRP }\IeC {\cyrr }\IeC {\cyri }\IeC {\cyrz }\IeC {\cyrn }\IeC {\cyra }\IeC {\cyrk }\IeC {\cyri }}{12}{section*.36}}
\@writefile{toc}{\contentsline {subsubsection}{\IeC {\CYRF }\IeC {\cyro }\IeC {\cyrr }\IeC {\cyrm }\IeC {\cyrery } \IeC {\cyrg }\IeC {\cyrl }\IeC {\cyra }\IeC {\cyrg }\IeC {\cyro }\IeC {\cyrl }\IeC {\cyro }\IeC {\cyrv } \IeC {\cyro }\IeC {\cyrb }\IeC {\cyrery }\IeC {\cyrch }\IeC {\cyrn }\IeC {\cyro }\IeC {\cyrg }\IeC {\cyro } \IeC {\cyrs }\IeC {\cyrp }\IeC {\cyrr }\IeC {\cyrya }\IeC {\cyrzh }\IeC {\cyre }\IeC {\cyrn }\IeC {\cyri }\IeC {\cyrya }}{12}{section*.37}}
\@writefile{lot}{\contentsline {table}{\numberline {6.1}{\ignorespaces \IeC {\CYRF }\IeC {\cyro }\IeC {\cyrr }\IeC {\cyrm }\IeC {\cyrery } \IeC {\cyrg }\IeC {\cyrl }\IeC {\cyra }\IeC {\cyrg }\IeC {\cyro }\IeC {\cyrl }\IeC {\cyro }\IeC {\cyrv }\relax }}{12}{table.caption.38}}
\@writefile{toc}{\contentsline {subsubsection}{\IeC {\CYRO }\IeC {\cyrt }\IeC {\cyrk }\IeC {\cyrl }\IeC {\cyro }\IeC {\cyrn }\IeC {\cyrya }\IeC {\cyryu }\IeC {\cyrshch }\IeC {\cyri }\IeC {\cyre }\IeC {\cyrs }\IeC {\cyrya } \IeC {\cyrg }\IeC {\cyrl }\IeC {\cyra }\IeC {\cyrg }\IeC {\cyro }\IeC {\cyrl }\IeC {\cyrery }}{12}{section*.39}}
\@writefile{toc}{\contentsline {subsubsection}{\IeC {\CYRS }\IeC {\cyro }\IeC {\cyrg }\IeC {\cyrl }\IeC {\cyra }\IeC {\cyrs }\IeC {\cyro }\IeC {\cyrv }\IeC {\cyra }\IeC {\cyrn }\IeC {\cyri }\IeC {\cyre } Imperativo Afirmativo \IeC {\cyrs } \IeC {\cyrm }\IeC {\cyre }\IeC {\cyrs }\IeC {\cyrt }\IeC {\cyro }\IeC {\cyri }\IeC {\cyrm }\IeC {\cyre }\IeC {\cyrn }\IeC {\cyri }\IeC {\cyrya }\IeC {\cyrm }\IeC {\cyri }}{13}{section*.40}}
\@writefile{toc}{\contentsline {chapter}{\numberline {7}Imperativo Negativo}{14}{chapter.7}}
\@writefile{lof}{\addvspace {10\p@ }}
\@writefile{lot}{\addvspace {10\p@ }}
\@writefile{toc}{\contentsline {subsubsection}{\IeC {\CYRP }\IeC {\cyrr }\IeC {\cyri }\IeC {\cyrz }\IeC {\cyrn }\IeC {\cyra }\IeC {\cyrk }\IeC {\cyri }}{14}{section*.41}}
\@writefile{toc}{\contentsline {subsubsection}{\IeC {\CYRF }\IeC {\cyro }\IeC {\cyrr }\IeC {\cyrm }\IeC {\cyrery } \IeC {\cyrg }\IeC {\cyrl }\IeC {\cyra }\IeC {\cyrg }\IeC {\cyro }\IeC {\cyrl }\IeC {\cyro }\IeC {\cyrv } \IeC {\cyro }\IeC {\cyrb }\IeC {\cyrery }\IeC {\cyrch }\IeC {\cyrn }\IeC {\cyro }\IeC {\cyrg }\IeC {\cyro } \IeC {\cyrs }\IeC {\cyrp }\IeC {\cyrr }\IeC {\cyrya }\IeC {\cyrzh }\IeC {\cyre }\IeC {\cyrn }\IeC {\cyri }\IeC {\cyrya }}{14}{section*.42}}
\@writefile{lot}{\contentsline {table}{\numberline {7.1}{\ignorespaces \IeC {\CYRF }\IeC {\cyro }\IeC {\cyrr }\IeC {\cyrm }\IeC {\cyrery } \IeC {\cyrg }\IeC {\cyrl }\IeC {\cyra }\IeC {\cyrg }\IeC {\cyro }\IeC {\cyrl }\IeC {\cyro }\IeC {\cyrv }\relax }}{14}{table.caption.43}}
\@writefile{toc}{\contentsline {subsubsection}{\IeC {\CYRO }\IeC {\cyrt }\IeC {\cyrk }\IeC {\cyrl }\IeC {\cyro }\IeC {\cyrn }\IeC {\cyrya }\IeC {\cyryu }\IeC {\cyrshch }\IeC {\cyri }\IeC {\cyre }\IeC {\cyrs }\IeC {\cyrya } \IeC {\cyrg }\IeC {\cyrl }\IeC {\cyra }\IeC {\cyrg }\IeC {\cyro }\IeC {\cyrl }\IeC {\cyrery }}{14}{section*.44}}
\@writefile{toc}{\contentsline {subsubsection}{\IeC {\CYRS }\IeC {\cyro }\IeC {\cyrg }\IeC {\cyrl }\IeC {\cyra }\IeC {\cyrs }\IeC {\cyro }\IeC {\cyrv }\IeC {\cyra }\IeC {\cyrn }\IeC {\cyri }\IeC {\cyre } Imperativo Afirmativo \IeC {\cyrs } \IeC {\cyrm }\IeC {\cyre }\IeC {\cyrs }\IeC {\cyrt }\IeC {\cyro }\IeC {\cyri }\IeC {\cyrm }\IeC {\cyre }\IeC {\cyrn }\IeC {\cyri }\IeC {\cyrya }\IeC {\cyrm }\IeC {\cyri }}{15}{section*.45}}
\@writefile{toc}{\contentsline {chapter}{\numberline {8}Gerundio}{16}{chapter.8}}
\@writefile{lof}{\addvspace {10\p@ }}
\@writefile{lot}{\addvspace {10\p@ }}
\@writefile{toc}{\contentsline {subsubsection}{\IeC {\CYRP }\IeC {\cyrr }\IeC {\cyri }\IeC {\cyrz }\IeC {\cyrn }\IeC {\cyra }\IeC {\cyrk }\IeC {\cyri }}{16}{section*.46}}
\@writefile{toc}{\contentsline {subsubsection}{\IeC {\CYRO }\IeC {\cyrb }\IeC {\cyrr }\IeC {\cyra }\IeC {\cyrz }\IeC {\cyro }\IeC {\cyrv }\IeC {\cyra }\IeC {\cyrn }\IeC {\cyri }\IeC {\cyre }}{16}{section*.47}}
\@writefile{toc}{\contentsline {subsubsection}{\IeC {\CYRU }\IeC {\cyrp }\IeC {\cyro }\IeC {\cyrt }\IeC {\cyrr }\IeC {\cyre }\IeC {\cyrb }\IeC {\cyrl }\IeC {\cyre }\IeC {\cyrn }\IeC {\cyri }\IeC {\cyre }}{16}{section*.49}}
\@writefile{toc}{\contentsline {subsubsection}{\IeC {\CYRN }\IeC {\cyre } \IeC {\cyru }\IeC {\cyrp }\IeC {\cyro }\IeC {\cyrt }\IeC {\cyrr }\IeC {\cyre }\IeC {\cyrb }\IeC {\cyrl }\IeC {\cyrya }\IeC {\cyre }\IeC {\cyrt }\IeC {\cyrs }\IeC {\cyrya }!}{16}{section*.50}}
\@writefile{toc}{\contentsline {chapter}{\numberline {9}\IeC {\CYRCH }\IeC {\cyra }\IeC {\cyrs }\IeC {\cyrt }\IeC {\cyri }\IeC {\cyrc }\IeC {\cyrery }}{17}{chapter.9}}
\@writefile{lof}{\addvspace {10\p@ }}
\@writefile{lot}{\addvspace {10\p@ }}
\@writefile{toc}{\contentsline {subsubsection}{\IeC {\CYRP }\IeC {\cyrr }\IeC {\cyri }\IeC {\cyrm }\IeC {\cyre }\IeC {\cyrr }\IeC {\cyrery }}{17}{section*.52}}
\@writefile{toc}{\contentsline {chapter}{\numberline {10}Condicionales}{18}{chapter.10}}
\@writefile{lof}{\addvspace {10\p@ }}
\@writefile{lot}{\addvspace {10\p@ }}
\@writefile{toc}{\contentsline {subsubsection}{\IeC {\CYRP }\IeC {\cyrr }\IeC {\cyri }\IeC {\cyrz }\IeC {\cyrn }\IeC {\cyra }\IeC {\cyrk }\IeC {\cyri }}{18}{section*.53}}
\@writefile{toc}{\contentsline {subsubsection}{\IeC {\CYRP }\IeC {\cyro }\IeC {\cyrs }\IeC {\cyrt }\IeC {\cyrr }\IeC {\cyro }\IeC {\cyre }\IeC {\cyrn }\IeC {\cyri }\IeC {\cyre }}{18}{section*.54}}
\@writefile{toc}{\contentsline {subsubsection}{\IeC {\CYRP }\IeC {\cyrr }\IeC {\cyri }\IeC {\cyrm }\IeC {\cyre }\IeC {\cyrr }\IeC {\cyrery }}{18}{section*.55}}
\@writefile{toc}{\contentsline {chapter}{\numberline {11}Comparaci\IeC {\'o}n}{19}{chapter.11}}
\@writefile{lof}{\addvspace {10\p@ }}
\@writefile{lot}{\addvspace {10\p@ }}
\@writefile{toc}{\contentsline {chapter}{\numberline {12}Verbos Irregulares}{20}{chapter.12}}
\@writefile{lof}{\addvspace {10\p@ }}
\@writefile{lot}{\addvspace {10\p@ }}
\@writefile{toc}{\contentsline {section}{\numberline {12.1}Abrir (\IeC {\cyro }\IeC {\cyrt }\IeC {\cyrk }\IeC {\cyrr }\IeC {\cyrery }\IeC {\cyrv }\IeC {\cyra }\IeC {\cyrt }\IeC {\cyrsftsn })}{20}{section.12.1}}
\newlabel{verb:abrir}{{12.1}{20}{Abrir (открывать)}{section.12.1}{}}
\@writefile{toc}{\contentsline {section}{\numberline {12.2}Andar (\IeC {\cyrh }\IeC {\cyro }\IeC {\cyrd }\IeC {\cyri }\IeC {\cyrt }\IeC {\cyrsftsn })}{20}{section.12.2}}
\newlabel{verb:andar}{{12.2}{20}{Andar (ходить)}{section.12.2}{}}
\@writefile{toc}{\contentsline {section}{\numberline {12.3}Caber (\IeC {\cyrs }\IeC {\cyro }\IeC {\cyrd }\IeC {\cyre }\IeC {\cyrr }\IeC {\cyrzh }\IeC {\cyra }\IeC {\cyrt }\IeC {\cyrsftsn })}{20}{section.12.3}}
\newlabel{verb:caber}{{12.3}{20}{Caber (содержать)}{section.12.3}{}}
\@writefile{toc}{\contentsline {section}{\numberline {12.4}Caer (\IeC {\cyrp }\IeC {\cyra }\IeC {\cyrd }\IeC {\cyra }\IeC {\cyrt }\IeC {\cyrsftsn })}{20}{section.12.4}}
\newlabel{verb:caer}{{12.4}{20}{Caer (падать)}{section.12.4}{}}
\@writefile{toc}{\contentsline {section}{\numberline {12.5}Dar (\IeC {\cyrd }\IeC {\cyra }\IeC {\cyrv }\IeC {\cyra }\IeC {\cyrt }\IeC {\cyrsftsn })}{21}{section.12.5}}
\newlabel{verb:dar}{{12.5}{21}{Dar (давать)}{section.12.5}{}}
\@writefile{toc}{\contentsline {section}{\numberline {12.6}Decir (\IeC {\cyrg }\IeC {\cyro }\IeC {\cyrv }\IeC {\cyro }\IeC {\cyrr }\IeC {\cyri }\IeC {\cyrt }\IeC {\cyrsftsn })}{21}{section.12.6}}
\newlabel{verb:decir}{{12.6}{21}{Decir (говорить)}{section.12.6}{}}
\@writefile{toc}{\contentsline {section}{\numberline {12.7}Dormir (\IeC {\cyrs }\IeC {\cyrp }\IeC {\cyra }\IeC {\cyrt }\IeC {\cyrsftsn })}{21}{section.12.7}}
\newlabel{verb:dormir}{{12.7}{21}{Dormir (спать)}{section.12.7}{}}
\@writefile{toc}{\contentsline {section}{\numberline {12.8}Escribir (\IeC {\cyrp }\IeC {\cyri }\IeC {\cyrs }\IeC {\cyra }\IeC {\cyrt }\IeC {\cyrsftsn })}{21}{section.12.8}}
\newlabel{verb:escribir}{{12.8}{21}{Escribir (писать)}{section.12.8}{}}
\@writefile{toc}{\contentsline {section}{\numberline {12.9}Estar (\IeC {\cyrb }\IeC {\cyrery }\IeC {\cyrt }\IeC {\cyrsftsn }, \IeC {\cyrn }\IeC {\cyra }\IeC {\cyrh }\IeC {\cyro }\IeC {\cyrd }\IeC {\cyri }\IeC {\cyrt }\IeC {\cyrsftsn }\IeC {\cyrs }\IeC {\cyrya })}{22}{section.12.9}}
\newlabel{verb:estar}{{12.9}{22}{Estar (быть, находиться)}{section.12.9}{}}
\@writefile{toc}{\contentsline {section}{\numberline {12.10}Haber (\IeC {\cyri }\IeC {\cyrm }\IeC {\cyre }\IeC {\cyrt }\IeC {\cyrsftsn })}{22}{section.12.10}}
\newlabel{verb:haber}{{12.10}{22}{Haber (иметь)}{section.12.10}{}}
\@writefile{toc}{\contentsline {section}{\numberline {12.11}Hacer (\IeC {\cyrd }\IeC {\cyre }\IeC {\cyrl }\IeC {\cyra }\IeC {\cyrt }\IeC {\cyrsftsn })}{22}{section.12.11}}
\newlabel{verb:hacer}{{12.11}{22}{Hacer (делать)}{section.12.11}{}}
\@writefile{toc}{\contentsline {section}{\numberline {12.12}Ir (\IeC {\cyri }\IeC {\cyrd }\IeC {\cyrt }\IeC {\cyri }, \IeC {\cyrh }\IeC {\cyro }\IeC {\cyrd }\IeC {\cyri }\IeC {\cyrt }\IeC {\cyrsftsn })}{22}{section.12.12}}
\newlabel{verb:ir}{{12.12}{22}{Ir (идти, ходить)}{section.12.12}{}}
\@writefile{toc}{\contentsline {section}{\numberline {12.13}O\IeC {\'\i }r (\IeC {\cyrs }\IeC {\cyrl }\IeC {\cyrery }\IeC {\cyrsh }\IeC {\cyra }\IeC {\cyrt }\IeC {\cyrsftsn }, \IeC {\cyrs }\IeC {\cyrl }\IeC {\cyru }\IeC {\cyrsh }\IeC {\cyra }\IeC {\cyrt }\IeC {\cyrsftsn })}{23}{section.12.13}}
\newlabel{verb:oir}{{12.13}{23}{Oír (слышать, слушать)}{section.12.13}{}}
\@writefile{toc}{\contentsline {section}{\numberline {12.14}Morir (\IeC {\cyru }\IeC {\cyrm }\IeC {\cyri }\IeC {\cyrr }\IeC {\cyra }\IeC {\cyrt }\IeC {\cyrsftsn })}{23}{section.12.14}}
\newlabel{verb:morir}{{12.14}{23}{Morir (умирать)}{section.12.14}{}}
\@writefile{toc}{\contentsline {section}{\numberline {12.15}Poder (\IeC {\cyrm }\IeC {\cyro }\IeC {\cyrch }\IeC {\cyrsftsn })}{23}{section.12.15}}
\newlabel{verb:poder}{{12.15}{23}{Poder (мочь)}{section.12.15}{}}
\@writefile{toc}{\contentsline {section}{\numberline {12.16}Poner (\IeC {\cyrk }\IeC {\cyrl }\IeC {\cyra }\IeC {\cyrs }\IeC {\cyrt }\IeC {\cyrsftsn }, \IeC {\cyrs }\IeC {\cyrt }\IeC {\cyra }\IeC {\cyrv }\IeC {\cyri }\IeC {\cyrt }\IeC {\cyrsftsn })}{23}{section.12.16}}
\newlabel{verb:poner}{{12.16}{23}{Poner (класть, ставить)}{section.12.16}{}}
\@writefile{toc}{\contentsline {section}{\numberline {12.17}Querer (\IeC {\cyrh }\IeC {\cyro }\IeC {\cyrt }\IeC {\cyre }\IeC {\cyrt }\IeC {\cyrsftsn }, \IeC {\cyrzh }\IeC {\cyre }\IeC {\cyrl }\IeC {\cyra }\IeC {\cyrt }\IeC {\cyrsftsn }, \IeC {\cyrl }\IeC {\cyryu }\IeC {\cyrb }\IeC {\cyri }\IeC {\cyrt }\IeC {\cyrsftsn })}{24}{section.12.17}}
\newlabel{verb:querer}{{12.17}{24}{Querer (хотеть, желать, любить)}{section.12.17}{}}
\@writefile{toc}{\contentsline {section}{\numberline {12.18}Saber (\IeC {\cyrz }\IeC {\cyrn }\IeC {\cyra }\IeC {\cyrt }\IeC {\cyrsftsn }, \IeC {\cyru }\IeC {\cyrm }\IeC {\cyre }\IeC {\cyrt }\IeC {\cyrsftsn })}{24}{section.12.18}}
\newlabel{verb:saber}{{12.18}{24}{Saber (знать, уметь)}{section.12.18}{}}
\@writefile{toc}{\contentsline {section}{\numberline {12.19}Salir (\IeC {\cyrv }\IeC {\cyrery }\IeC {\cyrh }\IeC {\cyro }\IeC {\cyrd }\IeC {\cyri }\IeC {\cyrt }\IeC {\cyrsftsn })}{24}{section.12.19}}
\newlabel{verb:salir}{{12.19}{24}{Salir (выходить)}{section.12.19}{}}
\@writefile{toc}{\contentsline {section}{\numberline {12.20}Ser (\IeC {\cyrb }\IeC {\cyrery }\IeC {\cyrt }\IeC {\cyrsftsn })}{24}{section.12.20}}
\newlabel{verb:ser}{{12.20}{24}{Ser (быть)}{section.12.20}{}}
\@writefile{toc}{\contentsline {section}{\numberline {12.21}Tener (\IeC {\cyri }\IeC {\cyrm }\IeC {\cyre }\IeC {\cyrt }\IeC {\cyrsftsn }, \IeC {\cyro }\IeC {\cyrb }\IeC {\cyrl }\IeC {\cyra }\IeC {\cyrd }\IeC {\cyra }\IeC {\cyrt }\IeC {\cyrsftsn })}{24}{section.12.21}}
\newlabel{verb:tener}{{12.21}{24}{Tener (иметь, обладать)}{section.12.21}{}}
\@writefile{toc}{\contentsline {section}{\numberline {12.22}Traer (\IeC {\cyrp }\IeC {\cyrr }\IeC {\cyri }\IeC {\cyrn }\IeC {\cyro }\IeC {\cyrs }\IeC {\cyri }\IeC {\cyrt }\IeC {\cyrsftsn })}{25}{section.12.22}}
\newlabel{verb:traer}{{12.22}{25}{Traer (приносить)}{section.12.22}{}}
\@writefile{toc}{\contentsline {section}{\numberline {12.23}Valer (\IeC {\cyrs }\IeC {\cyrt }\IeC {\cyro }\IeC {\cyri }\IeC {\cyrt }\IeC {\cyrsftsn }, \IeC {\cyrs }\IeC {\cyrch }\IeC {\cyri }\IeC {\cyrt }\IeC {\cyra }\IeC {\cyrt }\IeC {\cyrsftsn }\IeC {\cyrs }\IeC {\cyrya }, \IeC {\cyrg }\IeC {\cyro }\IeC {\cyrd }\IeC {\cyri }\IeC {\cyrt }\IeC {\cyrsftsn }\IeC {\cyrs }\IeC {\cyrya })}{25}{section.12.23}}
\newlabel{verb:valer}{{12.23}{25}{Valer (стоить, считаться, годиться)}{section.12.23}{}}
\@writefile{toc}{\contentsline {section}{\numberline {12.24}Venir (\IeC {\cyrp }\IeC {\cyrr }\IeC {\cyri }\IeC {\cyrh }\IeC {\cyro }\IeC {\cyrd }\IeC {\cyri }\IeC {\cyrt }\IeC {\cyrsftsn })}{25}{section.12.24}}
\newlabel{verb:venir}{{12.24}{25}{Venir (приходить)}{section.12.24}{}}
\@writefile{toc}{\contentsline {section}{\numberline {12.25}Ver (\IeC {\cyrv }\IeC {\cyri }\IeC {\cyrd }\IeC {\cyre }\IeC {\cyrt }\IeC {\cyrsftsn })}{25}{section.12.25}}
\newlabel{verb:ver}{{12.25}{25}{Ver (видеть)}{section.12.25}{}}
\@writefile{toc}{\contentsline {section}{\numberline {12.26}Volver (\IeC {\cyrv }\IeC {\cyro }\IeC {\cyrz }\IeC {\cyrv }\IeC {\cyrr }\IeC {\cyra }\IeC {\cyrshch }\IeC {\cyra }\IeC {\cyrt }\IeC {\cyrsftsn }\IeC {\cyrs }\IeC {\cyrya })}{26}{section.12.26}}
\newlabel{verb:volver}{{12.26}{26}{Volver (возвращаться)}{section.12.26}{}}
