\select@language {russian}
\select@language {russian}
\contentsline {chapter}{\numberline {1}Presente de Indicativo}{2}{chapter.1}
\contentsline {subsubsection}{\IeC {\CYRP }\IeC {\cyrr }\IeC {\cyri }\IeC {\cyrz }\IeC {\cyrn }\IeC {\cyra }\IeC {\cyrk }\IeC {\cyri }}{2}{section*.1}
\contentsline {subsubsection}{\IeC {\CYRF }\IeC {\cyro }\IeC {\cyrr }\IeC {\cyrm }\IeC {\cyrery } \IeC {\cyrg }\IeC {\cyrl }\IeC {\cyra }\IeC {\cyrg }\IeC {\cyro }\IeC {\cyrl }\IeC {\cyro }\IeC {\cyrv } \IeC {\cyro }\IeC {\cyrb }\IeC {\cyrery }\IeC {\cyrch }\IeC {\cyrn }\IeC {\cyro }\IeC {\cyrg }\IeC {\cyro } \IeC {\cyrs }\IeC {\cyrp }\IeC {\cyrr }\IeC {\cyrya }\IeC {\cyrzh }\IeC {\cyre }\IeC {\cyrn }\IeC {\cyri }\IeC {\cyrya }}{2}{section*.2}
\contentsline {subsubsection}{\IeC {\CYRO }\IeC {\cyrt }\IeC {\cyrk }\IeC {\cyrl }\IeC {\cyro }\IeC {\cyrn }\IeC {\cyrya }\IeC {\cyryu }\IeC {\cyrshch }\IeC {\cyri }\IeC {\cyre }\IeC {\cyrs }\IeC {\cyrya } \IeC {\cyrg }\IeC {\cyrl }\IeC {\cyra }\IeC {\cyrg }\IeC {\cyro }\IeC {\cyrl }\IeC {\cyrery }}{2}{section*.4}
\contentsline {paragraph}{I \IeC {\cyrg }\IeC {\cyrr }\IeC {\cyru }\IeC {\cyrp }\IeC {\cyrp }\IeC {\cyra }}{2}{section*.5}
\contentsline {paragraph}{II \IeC {\cyrg }\IeC {\cyrr }\IeC {\cyru }\IeC {\cyrp }\IeC {\cyrp }\IeC {\cyra }}{3}{section*.7}
\contentsline {paragraph}{III \IeC {\cyrg }\IeC {\cyrr }\IeC {\cyru }\IeC {\cyrp }\IeC {\cyrp }\IeC {\cyra }}{3}{section*.9}
\contentsline {paragraph}{IV \IeC {\cyrg }\IeC {\cyrr }\IeC {\cyru }\IeC {\cyrp }\IeC {\cyrp }\IeC {\cyra }}{3}{section*.11}
\contentsline {paragraph}{V \IeC {\cyrg }\IeC {\cyrr }\IeC {\cyru }\IeC {\cyrp }\IeC {\cyrp }\IeC {\cyra }}{4}{section*.13}
\contentsline {paragraph}{VI \IeC {\cyrg }\IeC {\cyrr }\IeC {\cyru }\IeC {\cyrp }\IeC {\cyrp }\IeC {\cyra }}{4}{section*.15}
\contentsline {chapter}{\numberline {2}Pret\IeC {\'e}rito Perfecto}{5}{chapter.2}
\contentsline {subsubsection}{\IeC {\CYRP }\IeC {\cyrr }\IeC {\cyri }\IeC {\cyrz }\IeC {\cyrn }\IeC {\cyra }\IeC {\cyrk }\IeC {\cyri }}{5}{section*.17}
\contentsline {subsubsection}{\IeC {\CYRF }\IeC {\cyro }\IeC {\cyrr }\IeC {\cyrm }\IeC {\cyrery } \IeC {\cyrg }\IeC {\cyrl }\IeC {\cyra }\IeC {\cyrg }\IeC {\cyro }\IeC {\cyrl }\IeC {\cyro }\IeC {\cyrv } \IeC {\cyrv } Pret\IeC {\'e}rito Perfecto}{5}{section*.18}
\contentsline {chapter}{\numberline {3}Pret\IeC {\'e}rito Imperfecto de Indicativo}{7}{chapter.3}
\contentsline {subsubsection}{\IeC {\CYRP }\IeC {\cyrr }\IeC {\cyri }\IeC {\cyrz }\IeC {\cyrn }\IeC {\cyra }\IeC {\cyrk }\IeC {\cyri }}{7}{section*.20}
\contentsline {subsubsection}{\IeC {\CYRF }\IeC {\cyro }\IeC {\cyrr }\IeC {\cyrm }\IeC {\cyrery } \IeC {\cyrg }\IeC {\cyrl }\IeC {\cyra }\IeC {\cyrg }\IeC {\cyro }\IeC {\cyrl }\IeC {\cyro }\IeC {\cyrv } \IeC {\cyrv } Pret\IeC {\'e}rito Imperfecto}{7}{section*.21}
\contentsline {chapter}{\numberline {4}Pret\IeC {\'e}rito Indefinido}{8}{chapter.4}
\contentsline {subsubsection}{\IeC {\CYRP }\IeC {\cyrr }\IeC {\cyri }\IeC {\cyrz }\IeC {\cyrn }\IeC {\cyra }\IeC {\cyrk }\IeC {\cyri }}{8}{section*.23}
\contentsline {subsubsection}{\IeC {\CYRF }\IeC {\cyro }\IeC {\cyrr }\IeC {\cyrm }\IeC {\cyrery } \IeC {\cyrg }\IeC {\cyrl }\IeC {\cyra }\IeC {\cyrg }\IeC {\cyro }\IeC {\cyrl }\IeC {\cyro }\IeC {\cyrv } \IeC {\cyro }\IeC {\cyrb }\IeC {\cyrery }\IeC {\cyrch }\IeC {\cyrn }\IeC {\cyro }\IeC {\cyrg }\IeC {\cyro } \IeC {\cyrs }\IeC {\cyrp }\IeC {\cyrr }\IeC {\cyrya }\IeC {\cyrzh }\IeC {\cyre }\IeC {\cyrn }\IeC {\cyri }\IeC {\cyrya }}{8}{section*.24}
\contentsline {subsubsection}{\IeC {\CYRP }\IeC {\cyrr }\IeC {\cyri }\IeC {\cyrm }\IeC {\cyre }\IeC {\cyrr }\IeC {\cyrery }}{8}{section*.26}
\contentsline {subsubsection}{\IeC {\CYRG }\IeC {\cyrl }\IeC {\cyra }\IeC {\cyrg }\IeC {\cyro }\IeC {\cyrl }\IeC {\cyrery }-\IeC {\cyri }\IeC {\cyrs }\IeC {\cyrk }\IeC {\cyrl }\IeC {\cyryu }\IeC {\cyrch }\IeC {\cyre }\IeC {\cyrn }\IeC {\cyri }\IeC {\cyrya }}{8}{section*.27}
\contentsline {chapter}{\numberline {5}Futuro Simple}{10}{chapter.5}
\contentsline {subsubsection}{\IeC {\CYRP }\IeC {\cyrr }\IeC {\cyri }\IeC {\cyrz }\IeC {\cyrn }\IeC {\cyra }\IeC {\cyrk }\IeC {\cyri }}{10}{section*.28}
\contentsline {subsubsection}{\IeC {\CYRF }\IeC {\cyro }\IeC {\cyrr }\IeC {\cyrm }\IeC {\cyrery } \IeC {\cyrg }\IeC {\cyrl }\IeC {\cyra }\IeC {\cyrg }\IeC {\cyro }\IeC {\cyrl }\IeC {\cyro }\IeC {\cyrv } \IeC {\cyrv } Futuro Simple}{10}{section*.29}
\contentsline {subsubsection}{\IeC {\CYRG }\IeC {\cyrl }\IeC {\cyra }\IeC {\cyrg }\IeC {\cyro }\IeC {\cyrl }\IeC {\cyrery }-\IeC {\cyri }\IeC {\cyrs }\IeC {\cyrk }\IeC {\cyrl }\IeC {\cyryu }\IeC {\cyrch }\IeC {\cyre }\IeC {\cyrn }\IeC {\cyri }\IeC {\cyrya }}{10}{section*.31}
\contentsline {subparagraph}{\IeC {\CYRG }\IeC {\cyrl }\IeC {\cyra }\IeC {\cyrg }\IeC {\cyro }\IeC {\cyrl }\IeC {\cyrery }, \IeC {\cyrp }\IeC {\cyro }\IeC {\cyrl }\IeC {\cyrn }\IeC {\cyro }\IeC {\cyrs }\IeC {\cyrt }\IeC {\cyrsftsn }\IeC {\cyryu } \IeC {\cyrm }\IeC {\cyre }\IeC {\cyrn }\IeC {\cyrya }\IeC {\cyryu }\IeC {\cyrshch }\IeC {\cyri }\IeC {\cyre } \IeC {\cyro }\IeC {\cyrs }\IeC {\cyrn }\IeC {\cyro }\IeC {\cyrv }\IeC {\cyru }}{10}{section*.32}
\contentsline {subparagraph}{\IeC {\CYRG }\IeC {\cyrl }\IeC {\cyra }\IeC {\cyrg }\IeC {\cyro }\IeC {\cyrl }\IeC {\cyrery } \IeC {\cyrs } \IeC {\cyrv }\IeC {\cyrery }\IeC {\cyrp }\IeC {\cyra }\IeC {\cyrd }\IeC {\cyra }\IeC {\cyryu }\IeC {\cyrshch }\IeC {\cyre }\IeC {\cyrishrt } \IeC {\cyrg }\IeC {\cyrl }\IeC {\cyra }\IeC {\cyrs }\IeC {\cyrn }\IeC {\cyro }\IeC {\cyrishrt }}{11}{section*.33}
\contentsline {subparagraph}{\IeC {\CYRG }\IeC {\cyrl }\IeC {\cyra }\IeC {\cyrg }\IeC {\cyro }\IeC {\cyrl }\IeC {\cyrery } \IeC {\cyrs } \IeC {\cyrv }\IeC {\cyrery }\IeC {\cyrp }\IeC {\cyra }\IeC {\cyrd }\IeC {\cyre }\IeC {\cyrn }\IeC {\cyri }\IeC {\cyre }\IeC {\cyrm } \IeC {\cyrg }\IeC {\cyrl }\IeC {\cyra }\IeC {\cyrs }\IeC {\cyrn }\IeC {\cyro }\IeC {\cyrishrt } \IeC {\cyri } \IeC {\cyrd }\IeC {\cyro }\IeC {\cyrb }\IeC {\cyra }\IeC {\cyrv }\IeC {\cyrl }\IeC {\cyre }\IeC {\cyrn }\IeC {\cyri }\IeC {\cyre }\IeC {\cyrm } \IeC {\cyrb }\IeC {\cyru }\IeC {\cyrk }\IeC {\cyrv }\IeC {\cyrery } \textbf {d} \IeC {\cyrv }\IeC {\cyro } \IeC {\cyri }\IeC {\cyrz }\IeC {\cyrb }\IeC {\cyre }\IeC {\cyrzh }\IeC {\cyra }\IeC {\cyrn }\IeC {\cyri }\IeC {\cyre } \IeC {\cyrs }\IeC {\cyro }\IeC {\cyrch }\IeC {\cyre }\IeC {\cyrt }\IeC {\cyra }\IeC {\cyrn }\IeC {\cyri }\IeC {\cyrishrt } \IeC {\cyrb }\IeC {\cyru }\IeC {\cyrk }\IeC {\cyrv } \textbf {nr}, \textbf {lr} }{11}{section*.34}
\contentsline {subsubsection}{\IeC {\CYRE }\IeC {\cyrs }\IeC {\cyrl }\IeC {\cyri } ..., \IeC {\cyrt }\IeC {\cyro } ...}{11}{section*.35}
\contentsline {chapter}{\numberline {6}Imperativo Afirmativo}{12}{chapter.6}
\contentsline {subsubsection}{\IeC {\CYRP }\IeC {\cyrr }\IeC {\cyri }\IeC {\cyrz }\IeC {\cyrn }\IeC {\cyra }\IeC {\cyrk }\IeC {\cyri }}{12}{section*.36}
\contentsline {subsubsection}{\IeC {\CYRF }\IeC {\cyro }\IeC {\cyrr }\IeC {\cyrm }\IeC {\cyrery } \IeC {\cyrg }\IeC {\cyrl }\IeC {\cyra }\IeC {\cyrg }\IeC {\cyro }\IeC {\cyrl }\IeC {\cyro }\IeC {\cyrv } \IeC {\cyro }\IeC {\cyrb }\IeC {\cyrery }\IeC {\cyrch }\IeC {\cyrn }\IeC {\cyro }\IeC {\cyrg }\IeC {\cyro } \IeC {\cyrs }\IeC {\cyrp }\IeC {\cyrr }\IeC {\cyrya }\IeC {\cyrzh }\IeC {\cyre }\IeC {\cyrn }\IeC {\cyri }\IeC {\cyrya }}{12}{section*.37}
\contentsline {subsubsection}{\IeC {\CYRO }\IeC {\cyrt }\IeC {\cyrk }\IeC {\cyrl }\IeC {\cyro }\IeC {\cyrn }\IeC {\cyrya }\IeC {\cyryu }\IeC {\cyrshch }\IeC {\cyri }\IeC {\cyre }\IeC {\cyrs }\IeC {\cyrya } \IeC {\cyrg }\IeC {\cyrl }\IeC {\cyra }\IeC {\cyrg }\IeC {\cyro }\IeC {\cyrl }\IeC {\cyrery }}{12}{section*.39}
\contentsline {subsubsection}{\IeC {\CYRS }\IeC {\cyro }\IeC {\cyrg }\IeC {\cyrl }\IeC {\cyra }\IeC {\cyrs }\IeC {\cyro }\IeC {\cyrv }\IeC {\cyra }\IeC {\cyrn }\IeC {\cyri }\IeC {\cyre } Imperativo Afirmativo \IeC {\cyrs } \IeC {\cyrm }\IeC {\cyre }\IeC {\cyrs }\IeC {\cyrt }\IeC {\cyro }\IeC {\cyri }\IeC {\cyrm }\IeC {\cyre }\IeC {\cyrn }\IeC {\cyri }\IeC {\cyrya }\IeC {\cyrm }\IeC {\cyri }}{13}{section*.40}
\contentsline {chapter}{\numberline {7}Imperativo Negativo}{14}{chapter.7}
\contentsline {subsubsection}{\IeC {\CYRP }\IeC {\cyrr }\IeC {\cyri }\IeC {\cyrz }\IeC {\cyrn }\IeC {\cyra }\IeC {\cyrk }\IeC {\cyri }}{14}{section*.41}
\contentsline {subsubsection}{\IeC {\CYRF }\IeC {\cyro }\IeC {\cyrr }\IeC {\cyrm }\IeC {\cyrery } \IeC {\cyrg }\IeC {\cyrl }\IeC {\cyra }\IeC {\cyrg }\IeC {\cyro }\IeC {\cyrl }\IeC {\cyro }\IeC {\cyrv } \IeC {\cyro }\IeC {\cyrb }\IeC {\cyrery }\IeC {\cyrch }\IeC {\cyrn }\IeC {\cyro }\IeC {\cyrg }\IeC {\cyro } \IeC {\cyrs }\IeC {\cyrp }\IeC {\cyrr }\IeC {\cyrya }\IeC {\cyrzh }\IeC {\cyre }\IeC {\cyrn }\IeC {\cyri }\IeC {\cyrya }}{14}{section*.42}
\contentsline {subsubsection}{\IeC {\CYRO }\IeC {\cyrt }\IeC {\cyrk }\IeC {\cyrl }\IeC {\cyro }\IeC {\cyrn }\IeC {\cyrya }\IeC {\cyryu }\IeC {\cyrshch }\IeC {\cyri }\IeC {\cyre }\IeC {\cyrs }\IeC {\cyrya } \IeC {\cyrg }\IeC {\cyrl }\IeC {\cyra }\IeC {\cyrg }\IeC {\cyro }\IeC {\cyrl }\IeC {\cyrery }}{14}{section*.44}
\contentsline {subsubsection}{\IeC {\CYRS }\IeC {\cyro }\IeC {\cyrg }\IeC {\cyrl }\IeC {\cyra }\IeC {\cyrs }\IeC {\cyro }\IeC {\cyrv }\IeC {\cyra }\IeC {\cyrn }\IeC {\cyri }\IeC {\cyre } Imperativo Afirmativo \IeC {\cyrs } \IeC {\cyrm }\IeC {\cyre }\IeC {\cyrs }\IeC {\cyrt }\IeC {\cyro }\IeC {\cyri }\IeC {\cyrm }\IeC {\cyre }\IeC {\cyrn }\IeC {\cyri }\IeC {\cyrya }\IeC {\cyrm }\IeC {\cyri }}{15}{section*.45}
\contentsline {chapter}{\numberline {8}Gerundio}{16}{chapter.8}
\contentsline {subsubsection}{\IeC {\CYRP }\IeC {\cyrr }\IeC {\cyri }\IeC {\cyrz }\IeC {\cyrn }\IeC {\cyra }\IeC {\cyrk }\IeC {\cyri }}{16}{section*.46}
\contentsline {subsubsection}{\IeC {\CYRO }\IeC {\cyrb }\IeC {\cyrr }\IeC {\cyra }\IeC {\cyrz }\IeC {\cyro }\IeC {\cyrv }\IeC {\cyra }\IeC {\cyrn }\IeC {\cyri }\IeC {\cyre }}{16}{section*.47}
\contentsline {subsubsection}{\IeC {\CYRU }\IeC {\cyrp }\IeC {\cyro }\IeC {\cyrt }\IeC {\cyrr }\IeC {\cyre }\IeC {\cyrb }\IeC {\cyrl }\IeC {\cyre }\IeC {\cyrn }\IeC {\cyri }\IeC {\cyre }}{16}{section*.49}
\contentsline {subsubsection}{\IeC {\CYRN }\IeC {\cyre } \IeC {\cyru }\IeC {\cyrp }\IeC {\cyro }\IeC {\cyrt }\IeC {\cyrr }\IeC {\cyre }\IeC {\cyrb }\IeC {\cyrl }\IeC {\cyrya }\IeC {\cyre }\IeC {\cyrt }\IeC {\cyrs }\IeC {\cyrya }!}{16}{section*.50}
\contentsline {chapter}{\numberline {9}\IeC {\CYRCH }\IeC {\cyra }\IeC {\cyrs }\IeC {\cyrt }\IeC {\cyri }\IeC {\cyrc }\IeC {\cyrery }}{17}{chapter.9}
\contentsline {subsubsection}{\IeC {\CYRP }\IeC {\cyrr }\IeC {\cyri }\IeC {\cyrm }\IeC {\cyre }\IeC {\cyrr }\IeC {\cyrery }}{17}{section*.52}
\contentsline {chapter}{\numberline {10}Condicionales}{18}{chapter.10}
\contentsline {subsubsection}{\IeC {\CYRP }\IeC {\cyrr }\IeC {\cyri }\IeC {\cyrz }\IeC {\cyrn }\IeC {\cyra }\IeC {\cyrk }\IeC {\cyri }}{18}{section*.53}
\contentsline {subsubsection}{\IeC {\CYRP }\IeC {\cyro }\IeC {\cyrs }\IeC {\cyrt }\IeC {\cyrr }\IeC {\cyro }\IeC {\cyre }\IeC {\cyrn }\IeC {\cyri }\IeC {\cyre }}{18}{section*.54}
\contentsline {subsubsection}{\IeC {\CYRP }\IeC {\cyrr }\IeC {\cyri }\IeC {\cyrm }\IeC {\cyre }\IeC {\cyrr }\IeC {\cyrery }}{18}{section*.55}
\contentsline {chapter}{\numberline {11}Comparaci\IeC {\'o}n}{19}{chapter.11}
\contentsline {chapter}{\numberline {12}Verbos Irregulares}{20}{chapter.12}
\contentsline {section}{\numberline {12.1}Abrir (\IeC {\cyro }\IeC {\cyrt }\IeC {\cyrk }\IeC {\cyrr }\IeC {\cyrery }\IeC {\cyrv }\IeC {\cyra }\IeC {\cyrt }\IeC {\cyrsftsn })}{20}{section.12.1}
\contentsline {section}{\numberline {12.2}Andar (\IeC {\cyrh }\IeC {\cyro }\IeC {\cyrd }\IeC {\cyri }\IeC {\cyrt }\IeC {\cyrsftsn })}{20}{section.12.2}
\contentsline {section}{\numberline {12.3}Caber (\IeC {\cyrs }\IeC {\cyro }\IeC {\cyrd }\IeC {\cyre }\IeC {\cyrr }\IeC {\cyrzh }\IeC {\cyra }\IeC {\cyrt }\IeC {\cyrsftsn })}{20}{section.12.3}
\contentsline {section}{\numberline {12.4}Caer (\IeC {\cyrp }\IeC {\cyra }\IeC {\cyrd }\IeC {\cyra }\IeC {\cyrt }\IeC {\cyrsftsn })}{20}{section.12.4}
\contentsline {section}{\numberline {12.5}Dar (\IeC {\cyrd }\IeC {\cyra }\IeC {\cyrv }\IeC {\cyra }\IeC {\cyrt }\IeC {\cyrsftsn })}{21}{section.12.5}
\contentsline {section}{\numberline {12.6}Decir (\IeC {\cyrg }\IeC {\cyro }\IeC {\cyrv }\IeC {\cyro }\IeC {\cyrr }\IeC {\cyri }\IeC {\cyrt }\IeC {\cyrsftsn })}{21}{section.12.6}
\contentsline {section}{\numberline {12.7}Dormir (\IeC {\cyrs }\IeC {\cyrp }\IeC {\cyra }\IeC {\cyrt }\IeC {\cyrsftsn })}{21}{section.12.7}
\contentsline {section}{\numberline {12.8}Escribir (\IeC {\cyrp }\IeC {\cyri }\IeC {\cyrs }\IeC {\cyra }\IeC {\cyrt }\IeC {\cyrsftsn })}{21}{section.12.8}
\contentsline {section}{\numberline {12.9}Estar (\IeC {\cyrb }\IeC {\cyrery }\IeC {\cyrt }\IeC {\cyrsftsn }, \IeC {\cyrn }\IeC {\cyra }\IeC {\cyrh }\IeC {\cyro }\IeC {\cyrd }\IeC {\cyri }\IeC {\cyrt }\IeC {\cyrsftsn }\IeC {\cyrs }\IeC {\cyrya })}{22}{section.12.9}
\contentsline {section}{\numberline {12.10}Haber (\IeC {\cyri }\IeC {\cyrm }\IeC {\cyre }\IeC {\cyrt }\IeC {\cyrsftsn })}{22}{section.12.10}
\contentsline {section}{\numberline {12.11}Hacer (\IeC {\cyrd }\IeC {\cyre }\IeC {\cyrl }\IeC {\cyra }\IeC {\cyrt }\IeC {\cyrsftsn })}{22}{section.12.11}
\contentsline {section}{\numberline {12.12}Ir (\IeC {\cyri }\IeC {\cyrd }\IeC {\cyrt }\IeC {\cyri }, \IeC {\cyrh }\IeC {\cyro }\IeC {\cyrd }\IeC {\cyri }\IeC {\cyrt }\IeC {\cyrsftsn })}{22}{section.12.12}
\contentsline {section}{\numberline {12.13}O\IeC {\'\i }r (\IeC {\cyrs }\IeC {\cyrl }\IeC {\cyrery }\IeC {\cyrsh }\IeC {\cyra }\IeC {\cyrt }\IeC {\cyrsftsn }, \IeC {\cyrs }\IeC {\cyrl }\IeC {\cyru }\IeC {\cyrsh }\IeC {\cyra }\IeC {\cyrt }\IeC {\cyrsftsn })}{23}{section.12.13}
\contentsline {section}{\numberline {12.14}Morir (\IeC {\cyru }\IeC {\cyrm }\IeC {\cyri }\IeC {\cyrr }\IeC {\cyra }\IeC {\cyrt }\IeC {\cyrsftsn })}{23}{section.12.14}
\contentsline {section}{\numberline {12.15}Poder (\IeC {\cyrm }\IeC {\cyro }\IeC {\cyrch }\IeC {\cyrsftsn })}{23}{section.12.15}
\contentsline {section}{\numberline {12.16}Poner (\IeC {\cyrk }\IeC {\cyrl }\IeC {\cyra }\IeC {\cyrs }\IeC {\cyrt }\IeC {\cyrsftsn }, \IeC {\cyrs }\IeC {\cyrt }\IeC {\cyra }\IeC {\cyrv }\IeC {\cyri }\IeC {\cyrt }\IeC {\cyrsftsn })}{23}{section.12.16}
\contentsline {section}{\numberline {12.17}Querer (\IeC {\cyrh }\IeC {\cyro }\IeC {\cyrt }\IeC {\cyre }\IeC {\cyrt }\IeC {\cyrsftsn }, \IeC {\cyrzh }\IeC {\cyre }\IeC {\cyrl }\IeC {\cyra }\IeC {\cyrt }\IeC {\cyrsftsn }, \IeC {\cyrl }\IeC {\cyryu }\IeC {\cyrb }\IeC {\cyri }\IeC {\cyrt }\IeC {\cyrsftsn })}{24}{section.12.17}
\contentsline {section}{\numberline {12.18}Saber (\IeC {\cyrz }\IeC {\cyrn }\IeC {\cyra }\IeC {\cyrt }\IeC {\cyrsftsn }, \IeC {\cyru }\IeC {\cyrm }\IeC {\cyre }\IeC {\cyrt }\IeC {\cyrsftsn })}{24}{section.12.18}
\contentsline {section}{\numberline {12.19}Salir (\IeC {\cyrv }\IeC {\cyrery }\IeC {\cyrh }\IeC {\cyro }\IeC {\cyrd }\IeC {\cyri }\IeC {\cyrt }\IeC {\cyrsftsn })}{24}{section.12.19}
\contentsline {section}{\numberline {12.20}Ser (\IeC {\cyrb }\IeC {\cyrery }\IeC {\cyrt }\IeC {\cyrsftsn })}{24}{section.12.20}
\contentsline {section}{\numberline {12.21}Tener (\IeC {\cyri }\IeC {\cyrm }\IeC {\cyre }\IeC {\cyrt }\IeC {\cyrsftsn }, \IeC {\cyro }\IeC {\cyrb }\IeC {\cyrl }\IeC {\cyra }\IeC {\cyrd }\IeC {\cyra }\IeC {\cyrt }\IeC {\cyrsftsn })}{24}{section.12.21}
\contentsline {section}{\numberline {12.22}Traer (\IeC {\cyrp }\IeC {\cyrr }\IeC {\cyri }\IeC {\cyrn }\IeC {\cyro }\IeC {\cyrs }\IeC {\cyri }\IeC {\cyrt }\IeC {\cyrsftsn })}{25}{section.12.22}
\contentsline {section}{\numberline {12.23}Valer (\IeC {\cyrs }\IeC {\cyrt }\IeC {\cyro }\IeC {\cyri }\IeC {\cyrt }\IeC {\cyrsftsn }, \IeC {\cyrs }\IeC {\cyrch }\IeC {\cyri }\IeC {\cyrt }\IeC {\cyra }\IeC {\cyrt }\IeC {\cyrsftsn }\IeC {\cyrs }\IeC {\cyrya }, \IeC {\cyrg }\IeC {\cyro }\IeC {\cyrd }\IeC {\cyri }\IeC {\cyrt }\IeC {\cyrsftsn }\IeC {\cyrs }\IeC {\cyrya })}{25}{section.12.23}
\contentsline {section}{\numberline {12.24}Venir (\IeC {\cyrp }\IeC {\cyrr }\IeC {\cyri }\IeC {\cyrh }\IeC {\cyro }\IeC {\cyrd }\IeC {\cyri }\IeC {\cyrt }\IeC {\cyrsftsn })}{25}{section.12.24}
\contentsline {section}{\numberline {12.25}Ver (\IeC {\cyrv }\IeC {\cyri }\IeC {\cyrd }\IeC {\cyre }\IeC {\cyrt }\IeC {\cyrsftsn })}{25}{section.12.25}
\contentsline {section}{\numberline {12.26}Volver (\IeC {\cyrv }\IeC {\cyro }\IeC {\cyrz }\IeC {\cyrv }\IeC {\cyrr }\IeC {\cyra }\IeC {\cyrshch }\IeC {\cyra }\IeC {\cyrt }\IeC {\cyrsftsn }\IeC {\cyrs }\IeC {\cyrya })}{26}{section.12.26}
